"('am', 'el')",1
"('aj', 'bm')",1
"('ch', 'bm')",1
"('el', 'bd')",2
"('ba', 'bc')",1
"('ci', 'bc')",1
"('df', 'ch')",1
"('am', 'bd')",1
"('ba', 'am')",1
"('ch', 'df')",1
"('cm', 'cr')",2
"('ch', 'ci')",9
"('ci', 'cm')",2
"('io', 'bm')",2
"('bc', 'ba')",1
"('bd', 'ba')",2
"('be', 'bm')",1
"('ha', 'ci')",1
"('ce', 'ci')",2
"('ah', 'ci')",1
"('io', 'am')",2
"('au', 'aj')",2
"('io', 'bc')",1
"('io', 'el')",2
"('bd', 'io')",4
"('bm', 'be')",2
"('ck', 'ce')",2
"('ah', 'cc')",1
"('bd', 'am')",1
"('aj', 'ce')",1
"('bc', 'io')",2
"('ck', 'df')",1
"('io', 'bd')",3
"('ch', 'cm')",2
"('el', 'bc')",2
"('am', 'be')",2
"('bc', 'be')",2
"('ci', 'df')",1
"('ah', 'df')",2
"('bm', 'io')",2
"('ha', 'cm')",1
"('ce', 'cm')",1
"('cr', 'ce')",1
"('ch', 'bc')",1
"('cr', 'ch')",4
"('cc', 'ch')",1
"('el', 'io')",3
"('ci', 'bm')",1
"('ce', 'cr')",1
"('au', 'bm')",1
"('ce', 'ch')",2
"('ci', 'ha')",1
"('ck', 'ci')",1
"('bm', 'ce')",1
"('ba', 'bm')",2
"('ci', 'cc')",1
"('ci', 'el')",1
"('cc', 'ah')",1
"('cm', 'ci')",2
"('ba', 'el')",1
"('bm', 'bd')",2
"('be', 'io')",4
"('ci', 'ah')",1
"('ci', 'bd')",1
"('df', 'cc')",2
"('io', 'be')",3
"('cr', 'bm')",1
"('bm', 'ck')",1
"('df', 'ah')",1
"('ci', 'ch')",7
"('ci', 'ce')",1
"('am', 'io')",2
"('bc', 'bd')",2
"('ha', 'cr')",1
"('ci', 'cr')",4
"('cr', 'ci')",4
"('el', 'be')",3
"('cr', 'el')",1
"('ch', 'cr')",4
"('df', 'ci')",1
"('ce', 'ck')",3
"('ck', 'ch')",1
"('ce', 'ah')",1
"('ch', 'ce')",1
"('be', 'am')",2
"('io', 'ba')",2
"('cm', 'ch')",2
"('be', 'ba')",2
"('cc', 'df')",2
"('ha', 'ch')",1
"('bm', 'bc')",2
"('bm', 'el')",3
"('ah', 'ch')",1
"('aj', 'ck')",1
"('ba', 'io')",2
"('ch', 'ah')",1
"('be', 'bd')",1
"('am', 'bm')",1
"('au', 'ce')",1
"('bd', 'be')",3
"('ch', 'el')",1
"('cr', 'cm')",1
"('ch', 'cc')",1
"('aj', 'au')",1
"('ck', 'ah')",1
"('ch', 'ha')",1
